{
    "boxes": [
	{
	    "name": "CAJA",
	    "boxes": [
		{
		    "min": 112,
		    "max": 122,
		    "name": "163"
		},
		{
		    "min": 122,
		    "max": 132,
		    "name": "150"
		},
		{
		    "min": 132,
		    "max": 145,
		    "name": "138"
		},
		{
		    "min": 145,
		    "max": 160,
		    "name": "125"
		},
		{
		    "min": 160,
		    "max": 179,
		    "name": "113"
		},
		{
		    "min": 179,
		    "max": 202,
		    "name": "100"
		},
		{
		    "min": 202,
		    "max": 226,
		    "name": "88"
		},
		{
		    "min": 226,
		    "max": 250,
		    "name": "80"
		},
		{
		    "min": 250,
		    "max": 280,
		    "name": "72"
		},
		{
		    "min": 280,
		    "max": 318,
		    "name": "64"
		}
	    ]
	},
	{
	    "name": "MARK IV",
	    "boxes": [
		{
		    "min": 114.5,
		    "max": 127,
		    "name": "150"
		},
		{
		    "min": 127,
		    "max": 142,
		    "name": "135"
		},
		{
		    "min": 142,
		    "max": 157,
		    "name": "120"
		},
		{
		    "min": 157,
		    "max": 172,
		    "name": "110"
		},
		{
		    "min": 172,
		    "max": 190,
		    "name": "100"
		},
		{
		    "min": 190,
		    "max": 212.5,
		    "name": "90"
		},
		{
		    "min": 212.5,
		    "max": 241,
		    "name": "80"
		},
		{
		    "min": 241,
		    "max": 278.5,
		    "name": "70"
		},
		{
		    "min": 278.5,
		    "max": 321,
		    "name": "60"
		}
	    ]
	},
	{
	    "name": "JAULÓN",
	    "boxes": [
		{
		    "min": 118,
		    "max": 129,
		    "name": "150"
		},
		{
		    "min": 129,
		    "max": 141,
		    "name": "138"
		},
		{
		    "min": 141,
		    "max": 156,
		    "name": "125"
		},
		{
		    "min": 156,
		    "max": 174,
		    "name": "113"
		},
		{
		    "min": 174,
		    "max": 197,
		    "name": "100"
		},
		{
		    "min": 197,
		    "max": 220,
		    "name": "88"
		},
		{
		    "min": 220,
		    "max": 244,
		    "name": "80"
		},
		{
		    "min": 244,
		    "max": 273,
		    "name": "72"
		}
	    ]
	},
	{
	    "name": "PLAF/IFCO",
	    "boxes": [
		{
		    "min": 128,
		    "max": 146,
		    "name": "102"
		},
		{
		    "min": 146,
		    "max": 167.5,
		    "name": "90"
		},
		{
		    "min": 167.5,
		    "max": 190,
		    "name": "78"
		},
		{
		    "min": 190,
		    "max": 206,
		    "name": "70"
		},
		{
		    "min": 206,
		    "max": 222.5,
		    "name": "66"
		},
		{
		    "min": 222.5,
		    "max": 244,
		    "name": "60"
		},
		{
		    "min": 244,
		    "max": 265,
		    "name": "55"
		}
	    ]
	},
	{
	    "name": "1/2 CAJA",
	    "boxes": [
		{
		    "min": 174,
		    "max": 191,
		    "name": "55"
		},
		{
		    "min": 191,
		    "max": 214,
		    "name": "50"
		},
		{
		    "min": 214,
		    "max": 239,
		    "name": "44"
		},
		{
		    "min": 239,
		    "max": 264,
		    "name": "44"
		},
		{
		    "min": 264,
		    "max": 295,
		    "name": "36"
		}
	    ]
	}
    ],
    "diameter_rule": {
	"from": 61,
	"to": 94
    },
    "scale": {
	"wdparams": {
	    "a": 0.0004424499,
	    "b": 3.001728
	}
    }
}
